<svg xmlns="http://www.w3.org/2000/svg" xmlns:xlink="http://www.w3.org/1999/xlink" width="45" height="45" viewBox="0 0 45 45">
    <defs>
        <path id="b" d="M6 6h14v14H6z"/>
        <filter id="a" width="400%" height="400%" x="-150%" y="-150%" filterUnits="objectBoundingBox">
            <feOffset in="SourceAlpha" result="shadowOffsetOuter1"/>
            <feGaussianBlur in="shadowOffsetOuter1" result="shadowBlurOuter1" stdDeviation="7"/>
            <feColorMatrix in="shadowBlurOuter1" values="0 0 0 0 1 0 0 0 0 1 0 0 0 0 1 0 0 0 0.5 0"/>
        </filter>
    </defs>
    <g fill="none" fill-rule="evenodd">
        <g transform="rotate(45 5.929 30.071)">
            <use fill="#000" filter="url(#a)" xlink:href="#b"/>
            <use fill="#018475" xlink:href="#b"/>
        </g>
        <path stroke="#FFF" d="M23 10.98L35.02 23 23 35.02 10.98 23z" opacity=".5"/>
    </g>
</svg>
